…
Now combine 2017 and 2018, and convert month to a character variable:

``` r
Mr.TW_years = rbind(Mr.TW_years17,Mr.TW_years18)
Mr.TW_years %>%
mutate(
       month = month.name[as.numeric(month)]
 )
```

    ## # A tibble: 24 x 3
    ##    month     total year 
    ##    <chr>     <dbl> <chr>
    ##  1 January    2.34 2017 
    ##  2 February   1.46 2017 
    ##  3 March      3.57 2017 
    ##  4 April      3.99 2017 
    ##  5 May        5.64 2017 
    ##  6 June       1.4  2017 
    ##  7 July       7.09 2017 
    ##  8 August     4.44 2017 
    ##  9 September  1.95 2017 
    ## 10 October    0    2017 
    ## # … with 14 more rows

``` r
select(Mr.TW_years, year, month, total)
```

    ## # A tibble: 24 x 3
    ##    year  month total
    ##    <chr> <dbl> <dbl>
    ##  1 2017      1  2.34
    ##  2 2017      2  1.46
    ##  3 2017      3  3.57
    ##  4 2017      4  3.99
    ##  5 2017      5  5.64
    ##  6 2017      6  1.4 
    ##  7 2017      7  7.09
    ##  8 2017      8  4.44
    ##  9 2017      9  1.95
    ## 10 2017     10  0   
    ## # … with 14 more rows
…
